^C:\USERS\SHANE\PERFORCE\SKING_HOME\2017_FALL_GAP305\MIDTERM\ENGINE\OS\SOURCE\OPSYS.CPP
C:\USERS\SHANE\PERFORCE\SKING_HOME\2017_FALL_GAP305\MIDTERM\ENGINE\OS\TEMP\WIN32_DEBUG\OS.PDB
C:\USERS\SHANE\PERFORCE\SKING_HOME\2017_FALL_GAP305\MIDTERM\ENGINE\OS\TEMP\WIN32_DEBUG\OS.IDB
C:\USERS\SHANE\PERFORCE\SKING_HOME\2017_FALL_GAP305\MIDTERM\ENGINE\OS\TEMP\WIN32_DEBUG\OPSYS.OBJ
