^C:\USERS\SHANE\PERFORCE\SKING_HOME\2017_FALL_GAP305\MIDTERM\ENGINE\OS\TEMP\WIN32_DEBUG\OPSYS.OBJ
C:\WINDOWS\GLOBALIZATION\SORTING\SORTDEFAULT.NLS
C:\USERS\SHANE\PERFORCE\SKING_HOME\2017_FALL_GAP305\MIDTERM\ENGINE\LOGGING\LIB\WIN32_DEBUG\LOGGING.LIB
C:\WINDOWS\SYSTEM32\TZRES.DLL
C:\USERS\SHANE\PERFORCE\SKING_HOME\2017_FALL_GAP305\MIDTERM\ENGINE\OS\TEMP\WIN32_DEBUG\OPSYS.OBJ
